module angelabad.me/pod-scheduler

go 1.18

require (
	github.com/spf13/cobra v1.5.0
	k8s.io/apimachinery v0.24.3
	k8s.io/client-go v0.24.3
	k8s.io/klog/v2 v2.70.1
)

require (
	github.com/davecgh/go-spew v1.1.1 // indirect
	github.com/emicklei/go-restful/v3 v3.9.0 // indirect
	github.com/go-logr/logr v1.2.3 // indirect
	github.com/go-openapi/jsonpointer v0.19.5 // indirect
	github.com/go-openapi/jsonreference v0.20.0 // indirect
	github.com/go-openapi/swag v0.21.1 // indirect
	github.com/gogo/protobuf v1.3.2 // indirect
	github.com/golang/protobuf v1.5.2 // indirect
	github.com/google/gnostic v0.6.9 // indirect
	github.com/google/gofuzz v1.2.0 // indirect
	github.com/imdario/mergo v0.3.13 // indirect
	github.com/inconshreveable/mousetrap v1.0.0 // indirect
	github.com/josharian/intern v1.0.0 // indirect
	github.com/json-iterator/go v1.1.12 // indirect
	github.com/mailru/easyjson v0.7.7 // indirect
	github.com/modern-go/concurrent v0.0.0-20180306012644-bacd9c7ef1dd // indirect
	github.com/modern-go/reflect2 v1.0.2 // indirect
	github.com/munnerz/goautoneg v0.0.0-20191010083416-a7dc8b61c822 // indirect
	github.com/spf13/pflag v1.0.5 // indirect
	golang.org/x/net v0.0.0-20220805013720-a33c5aa5df48 // indirect
	golang.org/x/oauth2 v0.0.0-20220722155238-128564f6959c // indirect
	golang.org/x/sys v0.0.0-20220804214406-8e32c043e418 // indirect
	golang.org/x/term v0.0.0-20220722155259-a9ba230a4035 // indirect
	golang.org/x/text v0.3.7 // indirect
	golang.org/x/time v0.0.0-20220722155302-e5dcc9cfc0b9 // indirect
	google.golang.org/appengine v1.6.7 // indirect
	google.golang.org/protobuf v1.28.1 // indirect
	gopkg.in/inf.v0 v0.9.1 // indirect
	gopkg.in/yaml.v2 v2.4.0 // indirect
	gopkg.in/yaml.v3 v3.0.1 // indirect
	k8s.io/api v0.24.3 // indirect
	k8s.io/kube-openapi v0.0.0-20220803164354-a70c9af30aea // indirect
	k8s.io/utils v0.0.0-20220728103510-ee6ede2d64ed // indirect
	sigs.k8s.io/json v0.0.0-20220713155537-f223a00ba0e2 // indirect
	sigs.k8s.io/structured-merge-diff/v4 v4.2.3 // indirect
	sigs.k8s.io/yaml v1.3.0 // indirect
)
